MSqRobSum
…
Summarization is also available immediatily from the msqrobsum package. The advantage of msqrobsum is that it offers parallelization useful for robust summarization of very large datasets.

msqrobsum accepts both MSnSet as data.frame objects as input and gives a dataframe with the results as output. when you use a data.frame as input it should minimaly contain the columns expression (log intensities), sample, feature (peptide ids) and protein(protein ids). An example input data.frame is generated by the function MSnSet2df() which converts an MSnSet() object to a data.frame.

## You can summarize from a MSnSet:
# protset2 <- msqrobsum( data = set, mode = 'sum', group_vars = 'protein')

## Or from a data.frame:
set_df = MSnSet2df(set)
set_df

## # A tibble: 469,359 x 10
##    feature sample expression protein human ecoli contaminant reverse
##    <chr>   <chr>       <dbl> <chr>   <lgl> <lgl> <lgl>       <lgl>  
##  1 AAAAAA… a1           22.5 P55011  TRUE  FALSE FALSE       FALSE  
##  2 AAAAAA… a1           26.0 Q86U42  TRUE  FALSE FALSE       FALSE  
##  3 AAAAAA… a1           26.8 P36578  TRUE  FALSE FALSE       FALSE  
##  4 AAAAAA… a1           26.6 Q96P70  TRUE  FALSE FALSE       FALSE  
##  5 AAAAAA… a1           22.4 Q8WVM8  TRUE  FALSE FALSE       FALSE  
##  6 AAAAAA… a1           22.8 Q86X55  TRUE  FALSE FALSE       FALSE  
##  7 AAAAAE… a1           25.6 O00410  TRUE  FALSE FALSE       FALSE  
##  8 AAAAAS… a1           23.5 Q9Y2U8  TRUE  FALSE FALSE       FALSE  
##  9 AAAAAS… a1           23.1 Q13049  TRUE  FALSE FALSE       FALSE  
## 10 AAAAAW… a1           23.5 Q9P258  TRUE  FALSE FALSE       FALSE  
## # … with 469,349 more rows, and 2 more variables: site_only <lgl>,
## #   condition <fct>

protset2 <- suppressWarnings(msqrobsum( data = set_df, mode = 'sum', group_vars = 'protein')) # group_vars indicate which variables you want to group on before summarization
protset2

## # A tibble: 4,662 x 3
##    protein data               data_summarized  
##    <chr>   <list>             <list>           
##  1 P55011  <tibble [22 × 3]>  <tibble [16 × 2]>
##  2 Q86U42  <tibble [38 × 3]>  <tibble [20 × 2]>
##  3 P36578  <tibble [447 × 3]> <tibble [20 × 2]>
##  4 Q96P70  <tibble [181 × 3]> <tibble [20 × 2]>
##  5 Q8WVM8  <tibble [162 × 3]> <tibble [20 × 2]>
##  6 Q86X55  <tibble [48 × 3]>  <tibble [20 × 2]>
##  7 O00410  <tibble [326 × 3]> <tibble [20 × 2]>
##  8 Q9Y2U8  <tibble [69 × 3]>  <tibble [20 × 2]>
##  9 Q13049  <tibble [19 × 3]>  <tibble [19 × 2]>
## 10 Q9P258  <tibble [106 × 3]> <tibble [20 × 2]>
## # … with 4,652 more rows
…
msqrobsum_result <- msqrobsum(data = set, expression ~ (1 | condition)
                              , contrasts = 'condition', mode = 'msqrob')
msqrobsum_result

## # A tibble: 4,662 x 11
##    protein data  formula    df sigma intercept sigma_post df_prior
##    <chr>   <lis> <chr>   <dbl> <dbl>     <dbl>      <dbl>    <dbl>
##  1 P55011  <tib… expres…  21.  0.501      21.8      0.498     2.06
##  2 Q86U42  <tib… expres…  37.  0.394      25.6      0.398     2.06
##  3 P36578  <tib… expres… 446.  1.90       26.4      1.90      2.06
##  4 Q96P70  <tib… expres… 180.  0.746      24.7      0.743     2.06
##  5 Q8WVM8  <tib… expres… 161.  0.561      23.8      0.559     2.06
##  6 Q86X55  <tib… expres…  47.  0.358      23.1      0.364     2.06
##  7 O00410  <tib… expres… 325.  1.07       24.9      1.07      2.06
##  8 Q9Y2U8  <tib… expres…  68   0.345      23.1      0.349     2.06
##  9 Q13049  <tib… expres…  18.0 0.321      23.3      0.339     2.06
## 10 Q9P258  <tib… expres… 105.  0.507      23.3      0.506     2.06
## # … with 4,652 more rows, and 3 more variables: sigma_prior <dbl>,
## #   df_post <dbl>, contrasts <list>

7 MSqRobSum: protein summarization and MSqRob analysis in 1 step.

msqrobsum() also allows to do the summarization and MSqRob analysis together. The biggest advantage is that we can make optimal use of the parralization provided by msqrobsum() reducing the overal run time.

msqrobsum_result <- msqrobsum(data = protset, expression ~ (1 | condition)
                              , contrasts = 'condition', mode = 'msqrobsum'
                              ## group by folowing variables,
                              ## they will also be retained in output
                              , group_vars = c('protein','human','ecoli'))
msqrobsum_result

## # A tibble: 4,662 x 14
##    protein human ecoli data  data_summarized formula    df  sigma intercept
##    <chr>   <lgl> <lgl> <lis> <list>          <chr>   <dbl>  <dbl>     <dbl>
##  1 A0AVT1  TRUE  FALSE <tib… <tibble [20 × … expres…  19   0.115       23.5
##  2 A0FGR8  TRUE  FALSE <tib… <tibble [20 × … expres…  15.6 0.0481      24.0
##  3 A0MZ66  TRUE  FALSE <tib… <tibble [20 × … expres…  16.8 0.0767      23.3
##  4 A1L0T0  TRUE  FALSE <tib… <tibble [20 × … expres…  19   0.243       22.6
##  5 A2RRP1  TRUE  FALSE <tib… <tibble [19 × … expres…  18.0 0.124       22.0
##  6 A3KN83  TRUE  FALSE <tib… <tibble [15 × … expres…  12.0 0.377       22.4
##  7 A4D1E9  TRUE  FALSE <tib… <tibble [20 × … expres…  17.3 0.107       22.7
##  8 A5PLL7  TRUE  FALSE <tib… <tibble [20 × … expres…  19.0 0.314       22.2
##  9 A5YKK6  TRUE  FALSE <tib… <tibble [20 × … expres…  17.6 0.0738      23.0
## 10 A6NDG6  TRUE  FALSE <tib… <tibble [20 × … expres…  19.0 0.143       23.9
## # … with 4,652 more rows, and 5 more variables: sigma_post <dbl>,
## #   df_prior <dbl>, sigma_prior <dbl>, df_post <dbl>, contrasts <list>
…
We see that only the FDR for contrast conditione-conditiona is not correctly controlled. However this can be explained due to ion competion. The is a huge difference is total protein concentration between condition a and e (big spike-in concentration difference). As a result, human peptides in condition e are overall ionized less then human peptides in condition a (because they have to compete with more E. coli peptides for ionization). The human peptides in condition e have on average a lower measured intensity and falsily appear to be less abundant then the human protein in condition a.

We can also easily check which proteins are significantly diffentially expressed in a certain condition.

msqrobsum_ab = filter(contrasts, qvalue < .05, contrast == 'conditionb-conditiona')
msqrobsum_ab

## # A tibble: 445 x 9
##    protein human contrast logFC sigma_contrast     se     t   pvalue
##    <chr>   <lgl> <chr>    <dbl>          <dbl>  <dbl> <dbl>    <dbl>
##  1 O60508  TRUE  conditi… 0.369          0.686 0.0987  3.74 1.61e- 3
##  2 P00350  FALSE conditi… 0.591          0.707 0.0352 16.8  5.53e-12
##  3 P00448  FALSE conditi… 0.446          0.703 0.0932  4.79 1.72e- 4
##  4 P00509  FALSE conditi… 0.524          0.705 0.0684  7.66 6.70e- 7
##  5 P00805  FALSE conditi… 0.456          0.705 0.0632  7.21 1.47e- 6
##  6 P00934  FALSE conditi… 0.553          0.850 0.135   4.10 9.34e- 4
##  7 P00946  FALSE conditi… 1.27           0.693 0.229   5.57 3.32e- 5
##  8 P00956  FALSE conditi… 0.556          0.706 0.0568  9.79 2.18e- 8
##  9 P00957  FALSE conditi… 0.550          0.705 0.0639  8.61 1.36e- 7
## 10 P00960  FALSE conditi… 0.711          0.691 0.154   4.61 2.47e- 4
## # … with 435 more rows, and 1 more variable: qvalue <dbl>

8 MSqRob analysis on peptide intensities

We can also use the msqrobsum() function to perform a MSqRob analysis on peptide intensities without first summarizing to protein summaries. Because a protein can have intensities from multiple peptides and the intensities belonging to 1 peptide are correlated with eachother whe have to account for this in our model. Previously we only had 1 protein summary per sample but now we have multiple peptide intensities per sample and these are also correlated with eachother. Hence our model: expression ~ (1|condition) + (1|sample) + (1|feature). However some proteins will only have intensities from 1 peptide and the model fitting wil fail if we try to use the model above. For these proteins we should use te reduced model expression ~ (1|condition). msqrobsum() The formulas parameter accepts a vector of formulas. Model fitting with the first model will be attempted first but if that fails it tries the second model and so on.

formulas =  c(expression ~ (1|condition) + (1|sample) + (1|feature)
            , expression ~ (1|condition))

msqrob_result <- msqrobsum(data = set, formulas, contrasts = 'condition', mode = 'msqrob'
                            ## group by folowing variables,
                            ## they will also be retained in output
                          , group_vars = c('protein','human','ecoli'))
msqrob_result

## # A tibble: 4,662 x 13
##    protein human ecoli data  formula     df sigma intercept sigma_post
##    <chr>   <lgl> <lgl> <lis> <chr>    <dbl> <dbl>     <dbl>      <dbl>
##  1 P55011  TRUE  FALSE <tib… expres…   8.10 0.113      22.1      0.161
##  2 Q86U42  TRUE  FALSE <tib… expres…  36.0  0.114      25.6      0.130
##  3 P36578  TRUE  FALSE <tib… expres… 423.   0.213      26.4      0.213
##  4 Q96P70  TRUE  FALSE <tib… expres… 171.   0.194      24.4      0.195
##  5 Q8WVM8  TRUE  FALSE <tib… expres… 154.   0.206      23.7      0.206
##  6 Q86X55  TRUE  FALSE <tib… expres…  39.7  0.317      23.1      0.309
##  7 O00410  TRUE  FALSE <tib… expres… 310.   0.224      24.7      0.224
##  8 Q9Y2U8  TRUE  FALSE <tib… expres…  56.0  0.224      23.1      0.224
##  9 Q13049  TRUE  FALSE <tib… expres…  18.0  0.321      23.3      0.304
## 10 Q9P258  TRUE  FALSE <tib… expres…  98.7  0.233      23.2      0.232
## # … with 4,652 more rows, and 4 more variables: df_prior <dbl>,
## #   sigma_prior <dbl>, df_post <dbl>, contrasts <list>
…
We see again that only the FDR for contrast conditione-conditiona is not correctly controlled due to ion competion.

We can easily check which proteins are significantly diffentially expressed in a certain condition.

msqrob_ab = filter(contrasts, qvalue < .05, contrast == 'conditionb-conditiona')
msqrob_ab

## # A tibble: 421 x 9
##    protein human contrast   logFC sigma_contrast     se      t   pvalue
##    <chr>   <lgl> <chr>      <dbl>          <dbl>  <dbl>  <dbl>    <dbl>
##  1 P0A7J3  FALSE conditi…  0.639          0.283  0.0358  17.8  4.37e-36
##  2 P16659  FALSE conditi…  0.324          0.244  0.0608   5.33 2.55e- 7
##  3 P0AES9  FALSE conditi…  0.621          0.483  0.116    5.34 2.70e- 6
##  4 P0ABC7  FALSE conditi…  0.397          0.349  0.0751   5.29 7.16e- 7
##  5 P0A7L0  FALSE conditi…  0.613          0.271  0.0464  13.2  3.64e-27
##  6 P0A867  FALSE conditi…  0.527          0.243  0.0596   8.83 1.16e-15
##  7 P02413  FALSE conditi…  0.659          0.407  0.0752   8.76 3.50e-12
##  8 P08200  FALSE conditi…  0.574          0.215  0.0528  10.9  2.78e-22
##  9 Q15149  TRUE  conditi… -0.0335         0.0490 0.0104  -3.21 1.34e- 3
## 10 P0A7V8  FALSE conditi…  0.632          0.257  0.0440  14.3  6.76e-30
## # … with 411 more rows, and 1 more variable: qvalue <dbl>
…
